…
``` r
# zero value resut in a greater intercept in regression
# need to make sure the data are greater than 1 before log transform.
xy <- dat %>% select(Petrol.TJ, Coal.TJ) %>% as_tibble();xy
#> # A tibble: 402 x 2
#>    Petrol.TJ  Coal.TJ
#>        <dbl>    <dbl>
#>  1  0.0350   0.000091
#>  2  0.000572 0.000017
#>  3  0.00749  0.000044
#>  4  0.00186  0.000024
#>  5  0.0562   0       
#>  6  0.000718 0       
#>  7  0.00112  0       
#>  8  0.000176 0       
#>  9  0.000077 0.000002
#> 10  0.000001 0       
#> # … with 392 more rows
…
